{
  "project_info": {
    "project_number": "487249013180",
    "firebase_url": "https://eventos-sogv.firebaseio.com",
    "project_id": "eventos-sogv",
    "storage_bucket": "eventos-sogv.appspot.com"
  },
  "client": [
    {
      "client_info": {
        "mobilesdk_app_id": "1:487249013180:android:cc711ae47c83f6c9e4a3b9",
        "android_client_info": {
          "package_name": "com.sogvapp.eventos"
        }
      },
      "oauth_client": [
        {
          "client_id": "487249013180-5bbsr7j5u0qn3mc154ft5n5k37n8d0mc.apps.googleusercontent.com",
          "client_type": 3
        }
      ],
      "api_key": [
        {
          "current_key": "AIzaSyBRz1ekyLnluHfpFDi7HZTskz31XEWa0sA"
        }
      ],
      "services": {
        "appinvite_service": {
          "other_platform_oauth_client": [
            {
              "client_id": "487249013180-5bbsr7j5u0qn3mc154ft5n5k37n8d0mc.apps.googleusercontent.com",
              "client_type": 3
            }
          ]
        }
      }
    }
  ],
  "configuration_version": "1"
}